…
In the above function, we have trained our model on two model types. The function returns a list continaing predictions and metrics as shown below.


```
m$Predictions
# A tibble: 30 x 2
   knn    rpart 
   <fct>  <fct> 
 1 setosa setosa
 2 setosa setosa
 3 setosa setosa
 4 setosa setosa
 5 setosa setosa
 6 setosa setosa
 7 setosa setosa
 8 setosa setosa
 9 setosa setosa
10 setosa setosa
# ... with 20 more rows
…
